{
	"additionalNodes": [],
	"additionalParameters": {
		"root": {
			"height": 168,
			"width": 231
		}
	},
	"inputs": [ {
		"command": "Variable",
		"name": "farks"
	} ],
	"outputs": [],
	"properties": {
		"LMZQHGcgvoMiDOCKFD6y1wDVqKOglerZ": {
			"height": 60,
			"title": "sequence",
			"width": 143,
			"x": 285,
			"y": 6
		},
		"PAzNw6AavjLqi30LAGxeFn4HJ22CqZTY": {
			"height": 98,
			"title": "store",
			"width": 263,
			"x": 604,
			"y": -218
		},
		"PIjZqPrMV7BQ9f4bY2scVmcYgAjspSKd": {
			"height": 112,
			"title": "swampdota.collectOnTheWay",
			"width": 332,
			"x": 1714,
			"y": 921
		},
		"TuwU8erkAY5mIrmHP77aEAYtQ47097ZE": {
			"height": 112,
			"title": "swampdota.collectOnTheWay",
			"width": 340,
			"x": 1693,
			"y": 521
		},
		"XUZeznd654PuimgVrgRZQ5QGG7I8i3Or": {
			"height": 90,
			"title": "luaCondition",
			"width": 1031,
			"x": 410,
			"y": 415
		},
		"a6ohSbP2SC3RjjdpobTlCdHvzzxyMAfY": {
			"height": 60,
			"title": "sequence",
			"width": 143,
			"x": 1486,
			"y": 611
		},
		"n2uUJ6IBBKK6qrAXVKy8qddkpaDu2RiU": {
			"height": 172,
			"title": "reference",
			"width": 320,
			"x": 1712,
			"y": 210
		},
		"r56QUpnTnzsAzFlAanzVClRd0KI9v6XK": {
			"height": 112,
			"title": "swampdota.collectOnTheWay",
			"width": 340,
			"x": 1696,
			"y": 724
		}
	},
	"roles": [ {
		"categories": [],
		"name": "Role 0"
	} ],
	"root": {
		"children": [ {
			"children": [],
			"id": "PAzNw6AavjLqi30LAGxeFn4HJ22CqZTY",
			"nodeType": "luaCommand",
			"parameters": [ {
				"name": "var",
				"value": "CM"
			}, {
				"name": "value",
				"value": "CenterMass(farks)"
			}, {
				"name": "scriptName",
				"value": "store"
			} ],
			"scriptName": "store"
		}, {
			"children": [ {
				"children": [],
				"id": "n2uUJ6IBBKK6qrAXVKy8qddkpaDu2RiU",
				"nodeType": "reference",
				"parameters": [ {
					"name": "behaviourName",
					"value": "swampdota.MoveGroup"
				} ],
				"referenceInputs": [ {
					"name": "myGroup",
					"value": "bb.ListGroups.farks"
				}, {
					"name": "wantedPosition",
					"value": "bb.array[bb.CP.index-6]"
				}, {
					"name": "CM",
					"value": "CM"
				} ],
				"referenceOutputs": []
			}, {
				"children": [ {
					"children": [],
					"id": "TuwU8erkAY5mIrmHP77aEAYtQ47097ZE",
					"nodeType": "luaCommand",
					"parameters": [ {
						"name": "closestDeadUnitSpot",
						"value": "bb.array[bb.CP.index-24]"
					}, {
						"name": "radius",
						"value": "300"
					}, {
						"name": "FARCKS",
						"value": "farks"
					}, {
						"name": "scriptName",
						"value": "swampdota.collectOnTheWay"
					} ],
					"scriptName": "swampdota.collectOnTheWay"
				}, {
					"children": [],
					"id": "r56QUpnTnzsAzFlAanzVClRd0KI9v6XK",
					"nodeType": "luaCommand",
					"parameters": [ {
						"name": "closestDeadUnitSpot",
						"value": "bb.array[bb.CP.index-14]"
					}, {
						"name": "radius",
						"value": "300"
					}, {
						"name": "FARCKS",
						"value": "farks"
					}, {
						"name": "scriptName",
						"value": "swampdota.collectOnTheWay"
					} ],
					"scriptName": "swampdota.collectOnTheWay"
				}, {
					"children": [],
					"id": "PIjZqPrMV7BQ9f4bY2scVmcYgAjspSKd",
					"nodeType": "luaCommand",
					"parameters": [ {
						"name": "closestDeadUnitSpot",
						"value": "bb.array[bb.CP.index-6]"
					}, {
						"name": "radius",
						"value": "300"
					}, {
						"name": "FARCKS",
						"value": "farks"
					}, {
						"name": "scriptName",
						"value": "swampdota.collectOnTheWay"
					} ],
					"scriptName": "swampdota.collectOnTheWay"
				} ],
				"id": "a6ohSbP2SC3RjjdpobTlCdHvzzxyMAfY",
				"nodeType": "sequence",
				"parameters": []
			} ],
			"id": "XUZeznd654PuimgVrgRZQ5QGG7I8i3Or",
			"nodeType": "luaCondition",
			"parameters": [ {
				"name": "expression",
				"value": "(CM:Distance(bb.array[bb.CP.index-4]) <= 150 or CM:Distance(bb.array[bb.CP.index-6]) >= bb.array[bb.CP.index-4]:Distance(bb.array[bb.CP.index-6]) )  "
			}, {
				"name": "repeat",
				"value": "true"
			} ]
		} ],
		"id": "LMZQHGcgvoMiDOCKFD6y1wDVqKOglerZ",
		"nodeType": "sequence",
		"parameters": []
	}
}