{
	"additionalNodes": [ {
		"children": [],
		"id": "27obSAtWdMn7nlkRQkqCsnCwEpkoVZM5",
		"nodeType": "reference",
		"parameters": [ {
			"name": "behaviourName",
			"value": "swampdota.MoveGroup"
		} ],
		"referenceInputs": [ {
			"name": "myGroup",
			"value": "bb.ListGroups.armmarts"
		}, {
			"name": "wantedPosition",
			"value": "bb.array[bb.CP.index-20]"
		}, {
			"name": "CM",
			"value": "CM"
		} ],
		"referenceOutputs": []
	}, {
		"children": [],
		"id": "tjTmaSUjWXyeZlSgACKwCQKbksWG1qdt",
		"nodeType": "success",
		"parameters": []
	} ],
	"additionalParameters": {
		"root": {
			"height": 168,
			"width": 231
		}
	},
	"inputs": [],
	"outputs": [],
	"properties": {
		"0AanG4h725snaSWhZaHLsteFCqeECpji": {
			"height": 94,
			"title": "store",
			"width": 305,
			"x": 1983,
			"y": 688
		},
		"27obSAtWdMn7nlkRQkqCsnCwEpkoVZM5": {
			"height": 172,
			"title": "reference",
			"width": 320,
			"x": 1839,
			"y": -43
		},
		"9Xv0zyB538KH9mRIpieFPFyY72XAZcAN": {
			"height": 94,
			"title": "store",
			"width": 305,
			"x": 1998,
			"y": 432
		},
		"CpIa1iPZqbEvbWhYq5Ubeprz4LevrhpT": {
			"height": 94,
			"title": "store",
			"width": 468,
			"x": 770,
			"y": 18
		},
		"VAaSlGA9SdI3K7u3Gtuo2coh3tlLMbb5": {
			"height": 98,
			"title": "store",
			"width": 328,
			"x": 684,
			"y": -90
		},
		"aBobgrLwIswp6vx9fvAGfTPwTNsHQwxK": {
			"height": 60,
			"title": "repeat",
			"width": 131,
			"x": 452,
			"y": 234
		},
		"bYJswES4d5JMzfnji3e2LiQm8RW5mgky": {
			"height": 60,
			"title": "repeat",
			"width": 131,
			"x": 251,
			"y": -124
		},
		"i9vU4OcGsMtTU9UH0LQZStG3et4YCtlA": {
			"height": 60,
			"title": "sequence",
			"width": 143,
			"x": 1643,
			"y": 449
		},
		"tjTmaSUjWXyeZlSgACKwCQKbksWG1qdt": {
			"height": 54,
			"title": "success",
			"width": 132,
			"x": 2578,
			"y": 345
		},
		"uNB4j5ruKS5pMKOlZQZq1GeJ6Jgb4kSq": {
			"height": 94,
			"title": "store",
			"width": 367,
			"x": 2021,
			"y": 323
		},
		"whAMGONuvKRbi6KpKcA5vqReDJDpRcyE": {
			"height": 60,
			"title": "sequence",
			"width": 143,
			"x": 407,
			"y": -18
		},
		"yDcec4V93dworCESOYxj4PaDuB9DZfZg": {
			"height": 132,
			"title": "swampdota.ShootAtCommand",
			"width": 255,
			"x": 1983,
			"y": 802
		}
	},
	"roles": [ {
		"categories": [],
		"name": "Role 0"
	} ],
	"root": {
		"children": [ {
			"children": [ {
				"children": [],
				"id": "VAaSlGA9SdI3K7u3Gtuo2coh3tlLMbb5",
				"nodeType": "luaCommand",
				"parameters": [ {
					"name": "var",
					"value": "CM"
				}, {
					"name": "value",
					"value": "CenterMass(bb.ListGroups.armmarts)"
				}, {
					"name": "scriptName",
					"value": "store"
				} ],
				"scriptName": "store"
			}, {
				"children": [],
				"id": "CpIa1iPZqbEvbWhYq5Ubeprz4LevrhpT",
				"nodeType": "luaCommand",
				"parameters": [ {
					"name": "var",
					"value": "commq"
				}, {
					"name": "value",
					"value": "Spring.GetCommandQueue(bb.ListGroups.armmarts[1])"
				}, {
					"name": "scriptName",
					"value": "store"
				} ],
				"scriptName": "store"
			}, {
				"children": [ {
					"children": [ {
						"children": [],
						"id": "uNB4j5ruKS5pMKOlZQZq1GeJ6Jgb4kSq",
						"nodeType": "luaCommand",
						"parameters": [ {
							"name": "var",
							"value": "tests"
						}, {
							"name": "value",
							"value": "UnitDefs[Spring.GetUnitDefID(2111)]"
						}, {
							"name": "scriptName",
							"value": "store"
						} ],
						"scriptName": "store"
					}, {
						"children": [],
						"id": "9Xv0zyB538KH9mRIpieFPFyY72XAZcAN",
						"nodeType": "luaCommand",
						"parameters": [ {
							"name": "var",
							"value": "target"
						}, {
							"name": "value",
							"value": "ScansEnemy(CM)"
						}, {
							"name": "scriptName",
							"value": "store"
						} ],
						"scriptName": "store"
					}, {
						"children": [],
						"id": "0AanG4h725snaSWhZaHLsteFCqeECpji",
						"nodeType": "luaCommand",
						"parameters": [ {
							"name": "var",
							"value": "bb.target"
						}, {
							"name": "value",
							"value": "target"
						}, {
							"name": "scriptName",
							"value": "store"
						} ],
						"scriptName": "store"
					}, {
						"children": [],
						"id": "yDcec4V93dworCESOYxj4PaDuB9DZfZg",
						"nodeType": "luaCommand",
						"parameters": [ {
							"name": "arty",
							"value": "bb.ListGroups.armmarts"
						}, {
							"name": "position",
							"value": "position"
						}, {
							"name": "enemyID",
							"value": "\ttarget"
						}, {
							"name": "mode",
							"value": "0"
						}, {
							"name": "scriptName",
							"value": "swampdota.ShootAtCommand"
						} ],
						"scriptName": "swampdota.ShootAtCommand"
					} ],
					"id": "i9vU4OcGsMtTU9UH0LQZStG3et4YCtlA",
					"nodeType": "sequence",
					"parameters": []
				} ],
				"id": "aBobgrLwIswp6vx9fvAGfTPwTNsHQwxK",
				"nodeType": "repeat",
				"parameters": []
			} ],
			"id": "whAMGONuvKRbi6KpKcA5vqReDJDpRcyE",
			"nodeType": "sequence",
			"parameters": []
		} ],
		"id": "bYJswES4d5JMzfnji3e2LiQm8RW5mgky",
		"nodeType": "repeat",
		"parameters": []
	}
}